\relax 
\providecommand\zref@newlabel[2]{}
\providecommand{\transparent@use}[1]{}
\bbl@beforestart
\babel@aux{english}{}
\@writefile{toc}{\contentsline {section}{\numberline {1}Image}{1}\protected@file@percent }
\@writefile{lof}{\contentsline {figure}{\numberline {1}{\ignorespaces Problem 1}}{1}\protected@file@percent }
\newlabel{fig:Problem-1}{{1}{1}}
\@writefile{toc}{\contentsline {subsection}{\numberline {1.1}Step by Step Solution}{1}\protected@file@percent }
\@writefile{toc}{\contentsline {subsection}{\numberline {1.2}Solution}{1}\protected@file@percent }
\@writefile{toc}{\contentsline {section}{\numberline {2}Image}{2}\protected@file@percent }
\@writefile{lof}{\contentsline {figure}{\numberline {2}{\ignorespaces Problem 2}}{2}\protected@file@percent }
\newlabel{fig:Problem-2}{{2}{2}}
\@writefile{toc}{\contentsline {subsection}{\numberline {2.1}Step by Step Solution}{2}\protected@file@percent }
\@writefile{toc}{\contentsline {subsection}{\numberline {2.2}Solution}{2}\protected@file@percent }
\@writefile{toc}{\contentsline {section}{\numberline {3}Image}{3}\protected@file@percent }
\@writefile{lof}{\contentsline {figure}{\numberline {3}{\ignorespaces Problem 3}}{3}\protected@file@percent }
\newlabel{fig:Problem-3}{{3}{3}}
\@writefile{toc}{\contentsline {subsection}{\numberline {3.1}Step by Step Solution}{3}\protected@file@percent }
\@writefile{toc}{\contentsline {subsection}{\numberline {3.2}Solution}{3}\protected@file@percent }
