<?xml version="1.0" encoding="UTF-8" standalone="no"?>
<svg
   xmlns:dc="http://purl.org/dc/elements/1.1/"
   xmlns:cc="http://creativecommons.org/ns#"
   xmlns:rdf="http://www.w3.org/1999/02/22-rdf-syntax-ns#"
   xmlns:svg="http://www.w3.org/2000/svg"
   xmlns="http://www.w3.org/2000/svg"
   xmlns:sodipodi="http://sodipodi.sourceforge.net/DTD/sodipodi-0.dtd"
   xmlns:inkscape="http://www.inkscape.org/namespaces/inkscape"
   width="71.765717mm"
   height="32.026142mm"
   viewBox="0 0 71.765717 32.026141"
   version="1.1"
   id="svg2551"
   inkscape:version="1.0 (4035a4fb49, 2020-05-01)"
   sodipodi:docname="problem_2.svg">
  <defs
     id="defs2545">
    <rect
       x="108.5454"
       y="85.976654"
       width="74.251022"
       height="15.842881"
       id="rect4721" />
    <rect
       x="135.20886"
       y="54.503834"
       width="66.323387"
       height="17.528198"
       id="rect4685" />
    <rect
       x="76.207237"
       y="35.438885"
       width="80.195877"
       height="15.492935"
       id="rect4650" />
    <rect
       x="121.31449"
       y="8.1072464"
       width="65.414574"
       height="13.542307"
       id="rect4644" />
    <marker
       inkscape:stockid="Arrow2Send"
       orient="auto"
       refY="0"
       refX="0"
       id="Arrow2Send"
       style="overflow:visible"
       inkscape:isstock="true">
      <path
         id="path3422"
         style="fill:#000000;fill-opacity:1;fill-rule:evenodd;stroke:#000000;stroke-width:0.625;stroke-linejoin:round;stroke-opacity:1"
         d="M 8.7185878,4.0337352 -2.2072895,0.01601326 8.7185884,-4.0017078 c -1.7454984,2.3720609 -1.7354408,5.6174519 -6e-7,8.035443 z"
         transform="matrix(-0.3,0,0,-0.3,0.69,0)" />
    </marker>
    <rect
       x="25.651033"
       y="4.7284374"
       width="58.884613"
       height="13.533241"
       id="rect3789" />
    <marker
       inkscape:stockid="Arrow1Mend"
       orient="auto"
       refY="0"
       refX="0"
       id="marker3749"
       style="overflow:visible"
       inkscape:isstock="true">
      <path
         id="path3747"
         d="M 0,0 5,-5 -12.5,0 5,5 Z"
         style="fill:#000000;fill-opacity:1;fill-rule:evenodd;stroke:#000000;stroke-width:1pt;stroke-opacity:1"
         transform="matrix(-0.4,0,0,-0.4,-4,0)" />
    </marker>
    <marker
       inkscape:stockid="Arrow2Mend"
       orient="auto"
       refY="0"
       refX="0"
       id="marker3715"
       style="overflow:visible"
       inkscape:isstock="true">
      <path
         id="path3713"
         style="fill:#000000;fill-opacity:1;fill-rule:evenodd;stroke:#000000;stroke-width:0.625;stroke-linejoin:round;stroke-opacity:1"
         d="M 8.7185878,4.0337352 -2.2072895,0.01601326 8.7185884,-4.0017078 c -1.7454984,2.3720609 -1.7354408,5.6174519 -6e-7,8.035443 z"
         transform="scale(-0.6)" />
    </marker>
    <marker
       inkscape:stockid="Arrow2Mend"
       orient="auto"
       refY="0"
       refX="0"
       id="Arrow2Mend"
       style="overflow:visible"
       inkscape:isstock="true">
      <path
         id="path3416"
         style="fill:#000000;fill-opacity:1;fill-rule:evenodd;stroke:#000000;stroke-width:0.625;stroke-linejoin:round;stroke-opacity:1"
         d="M 8.7185878,4.0337352 -2.2072895,0.01601326 8.7185884,-4.0017078 c -1.7454984,2.3720609 -1.7354408,5.6174519 -6e-7,8.035443 z"
         transform="scale(-0.6)" />
    </marker>
    <marker
       inkscape:stockid="Arrow1Mend"
       orient="auto"
       refY="0"
       refX="0"
       id="marker3667"
       style="overflow:visible"
       inkscape:isstock="true">
      <path
         id="path3665"
         d="M 0,0 5,-5 -12.5,0 5,5 Z"
         style="fill:#000000;fill-opacity:1;fill-rule:evenodd;stroke:#000000;stroke-width:1pt;stroke-opacity:1"
         transform="matrix(-0.4,0,0,-0.4,-4,0)" />
    </marker>
    <marker
       inkscape:stockid="Arrow1Mend"
       orient="auto"
       refY="0"
       refX="0"
       id="Arrow1Mend"
       style="overflow:visible"
       inkscape:isstock="true">
      <path
         id="path3398"
         d="M 0,0 5,-5 -12.5,0 5,5 Z"
         style="fill:#000000;fill-opacity:1;fill-rule:evenodd;stroke:#000000;stroke-width:1pt;stroke-opacity:1"
         transform="matrix(-0.4,0,0,-0.4,-4,0)" />
    </marker>
    <marker
       inkscape:isstock="true"
       style="overflow:visible"
       id="marker3749-1"
       refX="0"
       refY="0"
       orient="auto"
       inkscape:stockid="Arrow1Mend">
      <path
         transform="matrix(-0.4,0,0,-0.4,-4,0)"
         style="fill:#000000;fill-opacity:1;fill-rule:evenodd;stroke:#000000;stroke-width:1pt;stroke-opacity:1"
         d="M 0,0 5,-5 -12.5,0 5,5 Z"
         id="path3747-2" />
    </marker>
    <marker
       inkscape:isstock="true"
       style="overflow:visible"
       id="Arrow2Send-3"
       refX="0"
       refY="0"
       orient="auto"
       inkscape:stockid="Arrow2Send">
      <path
         transform="matrix(-0.3,0,0,-0.3,0.69,0)"
         d="M 8.7185878,4.0337352 -2.2072895,0.01601326 8.7185884,-4.0017078 c -1.7454984,2.3720609 -1.7354408,5.6174519 -6e-7,8.035443 z"
         style="fill:#000000;fill-opacity:1;fill-rule:evenodd;stroke:#000000;stroke-width:0.625;stroke-linejoin:round;stroke-opacity:1"
         id="path3422-1" />
    </marker>
    <marker
       inkscape:isstock="true"
       style="overflow:visible"
       id="Arrow2Send-4"
       refX="0"
       refY="0"
       orient="auto"
       inkscape:stockid="Arrow2Send">
      <path
         transform="matrix(-0.3,0,0,-0.3,0.69,0)"
         d="M 8.7185878,4.0337352 -2.2072895,0.01601326 8.7185884,-4.0017078 c -1.7454984,2.3720609 -1.7354408,5.6174519 -6e-7,8.035443 z"
         style="fill:#000000;fill-opacity:1;fill-rule:evenodd;stroke:#000000;stroke-width:0.625;stroke-linejoin:round;stroke-opacity:1"
         id="path3422-7" />
    </marker>
    <marker
       inkscape:stockid="Arrow2Send"
       orient="auto"
       refY="0"
       refX="0"
       id="Arrow2Send-3-4"
       style="overflow:visible"
       inkscape:isstock="true">
      <path
         id="path3422-1-5"
         style="fill:#000000;fill-opacity:1;fill-rule:evenodd;stroke:#000000;stroke-width:0.625;stroke-linejoin:round;stroke-opacity:1"
         d="M 8.7185878,4.0337352 -2.2072895,0.01601326 8.7185884,-4.0017078 c -1.7454984,2.3720609 -1.7354408,5.6174519 -6e-7,8.035443 z"
         transform="matrix(-0.3,0,0,-0.3,0.69,0)" />
    </marker>
    <rect
       id="rect4650-3"
       height="12.809151"
       width="58.872116"
       y="35.438885"
       x="76.207237" />
    <rect
       id="rect4663"
       height="15.492935"
       width="80.195877"
       y="35.438885"
       x="76.207237" />
    <rect
       id="rect3789-1"
       height="13.533241"
       width="58.884613"
       y="4.7284374"
       x="25.651033" />
    <rect
       id="rect5682"
       height="13.533241"
       width="58.884613"
       y="4.7284374"
       x="25.651033" />
    <rect
       x="25.651033"
       y="4.7284374"
       width="93.830605"
       height="39.974571"
       id="rect3789-1-6" />
    <rect
       x="25.651033"
       y="4.7284374"
       width="58.884613"
       height="13.533241"
       id="rect5711" />
    <rect
       x="25.651033"
       y="4.7284374"
       width="71.032066"
       height="13.448769"
       id="rect3789-1-2" />
    <rect
       x="25.651033"
       y="4.7284374"
       width="58.884613"
       height="13.533241"
       id="rect5741" />
    <rect
       id="rect3789-1-2-6"
       height="13.448769"
       width="71.032066"
       y="4.7284374"
       x="25.651033" />
    <rect
       id="rect5771"
       height="13.448769"
       width="71.032066"
       y="4.7284374"
       x="25.651033" />
  </defs>
  <sodipodi:namedview
     id="base"
     pagecolor="#ffffff"
     bordercolor="#666666"
     borderopacity="1.0"
     inkscape:pageopacity="0.0"
     inkscape:pageshadow="2"
     inkscape:zoom="4.1"
     inkscape:cx="118.80635"
     inkscape:cy="47.728774"
     inkscape:document-units="mm"
     inkscape:current-layer="layer1"
     inkscape:document-rotation="0"
     showgrid="false"
     lock-margins="true"
     fit-margin-top="0"
     fit-margin-left="0"
     fit-margin-right="0"
     fit-margin-bottom="0"
     showborder="false"
     showguides="true"
     inkscape:guide-bbox="true"
     inkscape:window-width="1870"
     inkscape:window-height="1011"
     inkscape:window-x="24"
     inkscape:window-y="24"
     inkscape:window-maximized="1" />
  <metadata
     id="metadata2548">
    <rdf:RDF>
      <cc:Work
         rdf:about="">
        <dc:format>image/svg+xml</dc:format>
        <dc:type
           rdf:resource="http://purl.org/dc/dcmitype/StillImage" />
        <dc:title></dc:title>
      </cc:Work>
    </rdf:RDF>
  </metadata>
  <g
     inkscape:label="Layer 1"
     inkscape:groupmode="layer"
     id="layer1"
     transform="translate(-62.240924,-30.825624)">
    <path
       style="fill:none;stroke:#000000;stroke-width:0.165152;stroke-linecap:butt;stroke-linejoin:miter;stroke-miterlimit:4;stroke-dasharray:none;stroke-opacity:1"
       d="M 62.420099,38.039398 101.47746,61.670534"
       id="path3321" />
    <path
       style="fill:none;stroke:#000000;stroke-width:0.264281;stroke-miterlimit:4;stroke-dasharray:0.792838, 0.264281;stroke-dashoffset:0;paint-order:markers fill stroke"
       id="path3383"
       sodipodi:type="arc"
       sodipodi:cx="-118.36369"
       sodipodi:cy="-12.743866"
       sodipodi:rx="16.037752"
       sodipodi:ry="16.15041"
       sodipodi:start="0.11144916"
       sodipodi:end="0.63275973"
       sodipodi:arc-type="arc"
       d="m -102.42544,-10.94764 a 16.037752,16.15041 0 0 1 -3.00543,7.7546814"
       transform="matrix(-0.79391375,-0.6080304,-0.58905933,0.80808979,0,0)"
       sodipodi:open="true" />
    <rect
       style="fill:none;stroke:#000000;stroke-width:0.264274;stroke-miterlimit:4;stroke-dasharray:none;stroke-dashoffset:0;paint-order:markers fill stroke"
       id="rect3385"
       width="3.0782139"
       height="8.1318064"
       x="73.098991"
       y="-8.1956987"
       transform="matrix(0.85347266,0.52113762,-0.50248096,0.86458827,0,0)" />
    <path
       style="fill:none;stroke:#000000;stroke-width:0.330305;stroke-linecap:butt;stroke-linejoin:miter;stroke-miterlimit:4;stroke-dasharray:none;stroke-opacity:1;marker-end:url(#marker3749)"
       d="m 71.529366,34.499436 6.604375,3.908386"
       id="path3387" />
    <text
       xml:space="preserve"
       id="text3787"
       style="font-style:normal;font-weight:normal;font-size:10.5833px;line-height:1.25;font-family:sans-serif;letter-spacing:0px;word-spacing:0px;white-space:pre;shape-inside:url(#rect3789);fill:#000000;fill-opacity:1;stroke:none;"
       transform="matrix(0.12997459,0,0,0.13322469,74.615681,34.358541)"><tspan
         x="25.650391"
         y="14.092255"><tspan>$\vec{v}$</tspan></tspan></text>
    <path
       style="fill:none;stroke:#000000;stroke-width:0.34021;stroke-linecap:butt;stroke-linejoin:miter;stroke-miterlimit:4;stroke-dasharray:none;stroke-opacity:1"
       d="m 126.64558,31.020303 -16.5489,31.074743"
       id="path3805" />
    <path
       style="fill:none;stroke:#000000;stroke-width:0.34021;stroke-linecap:butt;stroke-linejoin:miter;stroke-miterlimit:4;stroke-dasharray:none;stroke-opacity:1"
       d="m 102.85194,38.369915 31.07474,16.548894"
       id="path3807" />
    <path
       id="path3387-9"
       d="m 118.28111,46.538537 -9.94502,-5.315422"
       style="fill:none;stroke:#000000;stroke-width:0.510316;stroke-linecap:butt;stroke-linejoin:miter;stroke-miterlimit:4;stroke-dasharray:none;stroke-opacity:1;marker-end:url(#Arrow2Send)" />
    <path
       style="fill:none;stroke:#000000;stroke-width:0.510316;stroke-linecap:butt;stroke-linejoin:miter;stroke-miterlimit:4;stroke-dasharray:none;stroke-opacity:1;marker-end:url(#Arrow2Send-3)"
       d="m 118.26296,46.492907 -0.0813,15.62098"
       id="path3387-9-9" />
    <path
       style="fill:none;stroke:#000000;stroke-width:0.510316;stroke-linecap:butt;stroke-linejoin:miter;stroke-miterlimit:4;stroke-dasharray:none;stroke-opacity:1;marker-end:url(#Arrow2Send-4)"
       d="m 118.28111,46.538537 5.01096,-9.375351"
       id="path3387-9-8" />
    <path
       id="path3387-9-9-0"
       d="m 118.24538,46.521881 -9.61028,-0.03881"
       style="fill:none;stroke:#000000;stroke-width:0.510316;stroke-linecap:butt;stroke-linejoin:miter;stroke-miterlimit:4;stroke-dasharray:none;stroke-opacity:1;marker-end:url(#Arrow2Send-3-4)" />
    <text
       xml:space="preserve"
       id="text4683"
       style="font-style:normal;font-weight:normal;font-size:10.5833px;line-height:1.25;font-family:sans-serif;letter-spacing:0px;word-spacing:0px;white-space:pre;shape-inside:url(#rect4685);fill:#000000;fill-opacity:1;stroke:none;" />
    <text
       transform="matrix(0.087914,0,0,0.087914,108.7522,49.492259)"
       style="font-style:normal;font-weight:normal;font-size:10.5833px;line-height:1.25;font-family:sans-serif;letter-spacing:0px;word-spacing:0px;white-space:pre;shape-inside:url(#rect3789-1);fill:#000000;fill-opacity:1;stroke:none;"
       id="text3787-0"
       xml:space="preserve"><tspan
         x="25.650391"
         y="14.092255"><tspan>$\vec{D}$</tspan></tspan></text>
    <text
       xml:space="preserve"
       id="text3787-0-3"
       style="font-style:normal;font-weight:normal;font-size:10.5833px;line-height:1.25;font-family:sans-serif;letter-spacing:0px;word-spacing:0px;white-space:pre;shape-inside:url(#rect3789-1-6);fill:#000000;fill-opacity:1;stroke:none;"
       transform="matrix(0.087914,0,0,0.087914,110.16609,39.828507)"><tspan
         x="25.650391"
         y="14.092255"><tspan>$\vec{f_{k}}$</tspan></tspan></text>
    <text
       xml:space="preserve"
       id="text3787-0-0"
       style="font-style:normal;font-weight:normal;font-size:10.5833px;line-height:1.25;font-family:sans-serif;letter-spacing:0px;word-spacing:0px;white-space:pre;shape-inside:url(#rect3789-1-2);fill:#000000;fill-opacity:1;stroke:none;"
       transform="matrix(0.03145345,0,0,0.05028488,119.1938,58.321865)"><tspan
         x="25.650391"
         y="14.092255"><tspan>$\vec{Fg}$</tspan></tspan></text>
    <text
       transform="matrix(0.087914,0,0,0.087914,123.40888,40.243453)"
       style="font-style:normal;font-weight:normal;font-size:10.5833px;line-height:1.25;font-family:sans-serif;letter-spacing:0px;word-spacing:0px;white-space:pre;shape-inside:url(#rect3789-1-2-6);fill:#000000;fill-opacity:1;stroke:none;"
       id="text3787-0-0-1"
       xml:space="preserve"><tspan
         x="25.650391"
         y="14.092255"><tspan>$\vec{n}$</tspan></tspan></text>
  </g>
</svg>
