<?xml version="1.0" encoding="UTF-8" standalone="no"?>
<svg
   xmlns:dc="http://purl.org/dc/elements/1.1/"
   xmlns:cc="http://creativecommons.org/ns#"
   xmlns:rdf="http://www.w3.org/1999/02/22-rdf-syntax-ns#"
   xmlns:svg="http://www.w3.org/2000/svg"
   xmlns="http://www.w3.org/2000/svg"
   xmlns:sodipodi="http://sodipodi.sourceforge.net/DTD/sodipodi-0.dtd"
   xmlns:inkscape="http://www.inkscape.org/namespaces/inkscape"
   width="143.50331mm"
   height="66.794312mm"
   viewBox="0 0 143.50331 66.794312"
   version="1.1"
   id="svg8"
   inkscape:version="1.0 (4035a4fb49, 2020-05-01)"
   sodipodi:docname="problem_1.svg">
  <defs
     id="defs2">
    <rect
       id="rect988"
       height="17.383097"
       width="58.554611"
       y="-14.856355"
       x="-338.14664" />
    <rect
       x="-392.03745"
       y="-25.379805"
       width="31.847202"
       height="12.511513"
       id="rect6475" />
    <rect
       x="-322.04742"
       y="-29.36734"
       width="52.162937"
       height="28.164471"
       id="rect6469" />
    <marker
       inkscape:isstock="true"
       style="overflow:visible"
       id="marker3611"
       refX="0"
       refY="0"
       orient="auto"
       inkscape:stockid="Arrow2Send">
      <path
         transform="matrix(-0.3,0,0,-0.3,0.69,0)"
         d="M 8.7185878,4.0337352 -2.2072895,0.01601326 8.7185884,-4.0017078 c -1.7454984,2.3720609 -1.7354408,5.6174519 -6e-7,8.035443 z"
         style="fill:#000000;fill-opacity:1;fill-rule:evenodd;stroke:#000000;stroke-width:0.625;stroke-linejoin:round;stroke-opacity:1"
         id="path3609" />
    </marker>
    <marker
       inkscape:isstock="true"
       style="overflow:visible"
       id="marker3601"
       refX="0"
       refY="0"
       orient="auto"
       inkscape:stockid="Arrow2Send">
      <path
         transform="matrix(-0.3,0,0,-0.3,0.69,0)"
         d="M 8.7185878,4.0337352 -2.2072895,0.01601326 8.7185884,-4.0017078 c -1.7454984,2.3720609 -1.7354408,5.6174519 -6e-7,8.035443 z"
         style="fill:#000000;fill-opacity:1;fill-rule:evenodd;stroke:#000000;stroke-width:0.625;stroke-linejoin:round;stroke-opacity:1"
         id="path3599" />
    </marker>
    <marker
       inkscape:isstock="true"
       style="overflow:visible"
       id="marker3591"
       refX="0"
       refY="0"
       orient="auto"
       inkscape:stockid="Arrow2Send">
      <path
         transform="matrix(-0.3,0,0,-0.3,0.69,0)"
         d="M 8.7185878,4.0337352 -2.2072895,0.01601326 8.7185884,-4.0017078 c -1.7454984,2.3720609 -1.7354408,5.6174519 -6e-7,8.035443 z"
         style="fill:#000000;fill-opacity:1;fill-rule:evenodd;stroke:#000000;stroke-width:0.625;stroke-linejoin:round;stroke-opacity:1"
         id="path3589" />
    </marker>
    <marker
       inkscape:isstock="true"
       style="overflow:visible"
       id="marker3581"
       refX="0"
       refY="0"
       orient="auto"
       inkscape:stockid="Arrow2Send">
      <path
         transform="matrix(-0.3,0,0,-0.3,0.69,0)"
         d="M 8.7185878,4.0337352 -2.2072895,0.01601326 8.7185884,-4.0017078 c -1.7454984,2.3720609 -1.7354408,5.6174519 -6e-7,8.035443 z"
         style="fill:#000000;fill-opacity:1;fill-rule:evenodd;stroke:#000000;stroke-width:0.625;stroke-linejoin:round;stroke-opacity:1"
         id="path3579" />
    </marker>
    <rect
       x="-268.77335"
       y="-97.105896"
       width="238.1956"
       height="22.873236"
       id="rect3161" />
    <rect
       x="-234.01836"
       y="205.97414"
       width="63.449039"
       height="18.148394"
       id="rect2948" />
    <marker
       inkscape:stockid="Arrow1Mend"
       orient="auto"
       refY="0"
       refX="0"
       id="Arrow1Mend"
       style="overflow:visible"
       inkscape:isstock="true">
      <path
         id="path2673"
         d="M 0,0 5,-5 -12.5,0 5,5 Z"
         style="fill:#000000;fill-opacity:1;fill-rule:evenodd;stroke:#000000;stroke-width:1pt;stroke-opacity:1"
         transform="matrix(-0.4,0,0,-0.4,-4,0)" />
    </marker>
    <rect
       id="rect3161-7"
       height="22.873236"
       width="238.1956"
       y="-97.105896"
       x="-268.77335" />
    <rect
       x="-268.77335"
       y="-97.105896"
       width="238.1956"
       height="22.873236"
       id="rect3161-7-0" />
    <rect
       id="rect3161-7-0-8"
       height="22.873236"
       width="238.1956"
       y="-97.105896"
       x="-268.77335" />
    <rect
       id="rect3161-0"
       height="22.873236"
       width="238.1956"
       y="-97.105896"
       x="-268.77335" />
    <rect
       x="-268.77335"
       y="-97.105896"
       width="238.1956"
       height="22.873236"
       id="rect3161-0-3" />
    <rect
       x="-268.77335"
       y="-97.105896"
       width="238.1956"
       height="22.873236"
       id="rect3161-0-2" />
    <marker
       inkscape:isstock="true"
       style="overflow:visible"
       id="Arrow1Mend-9"
       refX="0"
       refY="0"
       orient="auto"
       inkscape:stockid="Arrow1Mend">
      <path
         transform="matrix(-0.4,0,0,-0.4,-4,0)"
         style="fill:#000000;fill-opacity:1;fill-rule:evenodd;stroke:#000000;stroke-width:1pt;stroke-opacity:1"
         d="M 0,0 5,-5 -12.5,0 5,5 Z"
         id="path2673-7" />
    </marker>
    <rect
       id="rect2948-3"
       height="18.148394"
       width="63.449039"
       y="205.97414"
       x="-234.01836" />
    <marker
       inkscape:stockid="Arrow2Send"
       orient="auto"
       refY="0"
       refX="0"
       id="marker3581-2"
       style="overflow:visible"
       inkscape:isstock="true">
      <path
         id="path3579-9"
         style="fill:#000000;fill-opacity:1;fill-rule:evenodd;stroke:#000000;stroke-width:0.625;stroke-linejoin:round;stroke-opacity:1"
         d="M 8.7185878,4.0337352 -2.2072895,0.01601326 8.7185884,-4.0017078 c -1.7454984,2.3720609 -1.7354408,5.6174519 -6e-7,8.035443 z"
         transform="matrix(-0.3,0,0,-0.3,0.69,0)" />
    </marker>
    <rect
       x="-268.77335"
       y="-97.105896"
       width="238.1956"
       height="22.873236"
       id="rect3161-7-0-8-1" />
    <marker
       inkscape:stockid="Arrow2Send"
       orient="auto"
       refY="0"
       refX="0"
       id="marker3601-4"
       style="overflow:visible"
       inkscape:isstock="true">
      <path
         id="path3599-7"
         style="fill:#000000;fill-opacity:1;fill-rule:evenodd;stroke:#000000;stroke-width:0.625;stroke-linejoin:round;stroke-opacity:1"
         d="M 8.7185878,4.0337352 -2.2072895,0.01601326 8.7185884,-4.0017078 c -1.7454984,2.3720609 -1.7354408,5.6174519 -6e-7,8.035443 z"
         transform="matrix(-0.3,0,0,-0.3,0.69,0)" />
    </marker>
    <rect
       id="rect3161-7-0-4"
       height="22.873236"
       width="238.1956"
       y="-97.105896"
       x="-268.77335" />
    <marker
       inkscape:stockid="Arrow2Send"
       orient="auto"
       refY="0"
       refX="0"
       id="marker3611-0"
       style="overflow:visible"
       inkscape:isstock="true">
      <path
         id="path3609-3"
         style="fill:#000000;fill-opacity:1;fill-rule:evenodd;stroke:#000000;stroke-width:0.625;stroke-linejoin:round;stroke-opacity:1"
         d="M 8.7185878,4.0337352 -2.2072895,0.01601326 8.7185884,-4.0017078 c -1.7454984,2.3720609 -1.7354408,5.6174519 -6e-7,8.035443 z"
         transform="matrix(-0.3,0,0,-0.3,0.69,0)" />
    </marker>
    <marker
       inkscape:isstock="true"
       style="overflow:visible"
       id="marker3611-0-0"
       refX="0"
       refY="0"
       orient="auto"
       inkscape:stockid="Arrow2Send">
      <path
         transform="matrix(-0.3,0,0,-0.3,0.69,0)"
         d="M 8.7185878,4.0337352 -2.2072895,0.01601326 8.7185884,-4.0017078 c -1.7454984,2.3720609 -1.7354408,5.6174519 -6e-7,8.035443 z"
         style="fill:#000000;fill-opacity:1;fill-rule:evenodd;stroke:#000000;stroke-width:0.625;stroke-linejoin:round;stroke-opacity:1"
         id="path3609-3-6" />
    </marker>
    <rect
       x="-268.77335"
       y="-97.105896"
       width="238.1956"
       height="22.873236"
       id="rect3161-7-2" />
    <rect
       id="rect3161-6"
       height="22.873236"
       width="238.1956"
       y="-97.105896"
       x="-268.77335" />
    <marker
       inkscape:isstock="true"
       style="overflow:visible"
       id="marker3581-2-5"
       refX="0"
       refY="0"
       orient="auto"
       inkscape:stockid="Arrow2Send">
      <path
         transform="matrix(-0.3,0,0,-0.3,0.69,0)"
         d="M 8.7185878,4.0337352 -2.2072895,0.01601326 8.7185884,-4.0017078 c -1.7454984,2.3720609 -1.7354408,5.6174519 -6e-7,8.035443 z"
         style="fill:#000000;fill-opacity:1;fill-rule:evenodd;stroke:#000000;stroke-width:0.625;stroke-linejoin:round;stroke-opacity:1"
         id="path3579-9-5" />
    </marker>
    <marker
       inkscape:stockid="Arrow2Send"
       orient="auto"
       refY="0"
       refX="0"
       id="marker3581-2-5-7"
       style="overflow:visible"
       inkscape:isstock="true">
      <path
         id="path3579-9-5-6"
         style="fill:#000000;fill-opacity:1;fill-rule:evenodd;stroke:#000000;stroke-width:0.625;stroke-linejoin:round;stroke-opacity:1"
         d="M 8.7185878,4.0337352 -2.2072895,0.01601326 8.7185884,-4.0017078 c -1.7454984,2.3720609 -1.7354408,5.6174519 -6e-7,8.035443 z"
         transform="matrix(-0.3,0,0,-0.3,0.69,0)" />
    </marker>
    <rect
       x="-268.77335"
       y="-97.105896"
       width="238.1956"
       height="22.873236"
       id="rect3161-6-6" />
    <rect
       id="rect3161-7-0-8-1-3"
       height="22.873236"
       width="238.1956"
       y="-97.105896"
       x="-268.77335" />
    <marker
       inkscape:isstock="true"
       style="overflow:visible"
       id="Arrow1Mend-4"
       refX="0"
       refY="0"
       orient="auto"
       inkscape:stockid="Arrow1Mend">
      <path
         transform="matrix(-0.4,0,0,-0.4,-4,0)"
         style="fill:#000000;fill-opacity:1;fill-rule:evenodd;stroke:#000000;stroke-width:1pt;stroke-opacity:1"
         d="M 0,0 5,-5 -12.5,0 5,5 Z"
         id="path2673-5" />
    </marker>
    <rect
       id="rect2948-4"
       height="18.148394"
       width="63.449039"
       y="205.97414"
       x="-234.01836" />
    <rect
       x="-338.14664"
       y="-14.856355"
       width="85.047245"
       height="19.931405"
       id="rect988-3" />
    <rect
       x="-338.14664"
       y="-14.856355"
       width="58.554611"
       height="17.383097"
       id="rect1569" />
    <rect
       x="-338.14664"
       y="-14.856355"
       width="58.554611"
       height="17.383097"
       id="rect988-7" />
    <rect
       x="-338.14664"
       y="-14.856355"
       width="58.554611"
       height="17.383097"
       id="rect1599" />
    <rect
       id="rect988-7-3"
       height="16.027598"
       width="71.435819"
       y="-14.856355"
       x="-338.14664" />
    <rect
       id="rect1629"
       height="17.383097"
       width="58.554611"
       y="-14.856355"
       x="-338.14664" />
    <rect
       x="-338.14664"
       y="-14.856355"
       width="71.435822"
       height="16.027597"
       id="rect988-7-3-2" />
    <rect
       x="-338.14664"
       y="-14.856355"
       width="71.435822"
       height="16.027597"
       id="rect1958" />
    <rect
       id="rect988-3-1"
       height="19.931404"
       width="85.047241"
       y="-14.856355"
       x="-338.14664" />
    <rect
       id="rect1988"
       height="19.931404"
       width="85.047241"
       y="-14.856355"
       x="-338.14664" />
    <rect
       x="-338.14664"
       y="-14.856355"
       width="58.554611"
       height="17.383097"
       id="rect988-70" />
    <rect
       x="-338.14664"
       y="-14.856355"
       width="58.554611"
       height="17.383097"
       id="rect2018" />
    <rect
       x="-338.14664"
       y="-14.856355"
       width="71.435822"
       height="16.027597"
       id="rect988-7-3-3" />
    <rect
       x="-338.14664"
       y="-14.856355"
       width="71.435822"
       height="16.027597"
       id="rect2048" />
    <rect
       x="-338.14664"
       y="-14.856355"
       width="71.435822"
       height="16.027597"
       id="rect988-7-3-0" />
    <rect
       x="-338.14664"
       y="-14.856355"
       width="71.435822"
       height="16.027597"
       id="rect2048-6" />
    <rect
       id="rect988-7-3-0-6"
       height="16.027597"
       width="71.435822"
       y="-14.856355"
       x="-338.14664" />
    <rect
       id="rect2098"
       height="16.027597"
       width="71.435822"
       y="-14.856355"
       x="-338.14664" />
    <rect
       x="-338.14664"
       y="-14.856355"
       width="71.435822"
       height="16.027597"
       id="rect988-7-3-8" />
    <rect
       x="-338.14664"
       y="-14.856355"
       width="71.435822"
       height="16.027597"
       id="rect2128" />
    <rect
       id="rect988-7-3-8-9"
       height="16.027597"
       width="71.435822"
       y="-14.856355"
       x="-338.14664" />
    <rect
       id="rect2158"
       height="16.027597"
       width="71.435822"
       y="-14.856355"
       x="-338.14664" />
    <rect
       x="-338.14664"
       y="-14.856355"
       width="71.435822"
       height="16.027597"
       id="rect988-7-3-0-6-3" />
    <rect
       x="-338.14664"
       y="-14.856355"
       width="71.435822"
       height="16.027597"
       id="rect2218" />
    <rect
       id="rect988-7-3-2-5"
       height="16.027597"
       width="71.435822"
       y="-14.856355"
       x="-338.14664" />
    <rect
       id="rect2248"
       height="16.027597"
       width="71.435822"
       y="-14.856355"
       x="-338.14664" />
    <rect
       id="rect988-7-3-3-2"
       height="16.027597"
       width="71.435822"
       y="-14.856355"
       x="-338.14664" />
    <rect
       id="rect2278"
       height="16.027597"
       width="71.435822"
       y="-14.856355"
       x="-338.14664" />
    <rect
       x="-338.14664"
       y="-14.856355"
       width="71.435822"
       height="16.027597"
       id="rect988-7-3-8-9-8" />
    <rect
       x="-338.14664"
       y="-14.856355"
       width="71.435822"
       height="16.027597"
       id="rect2308" />
  </defs>
  <sodipodi:namedview
     id="base"
     pagecolor="#ffffff"
     bordercolor="#666666"
     borderopacity="1.0"
     inkscape:pageopacity="0.0"
     inkscape:pageshadow="2"
     inkscape:zoom="2.1137749"
     inkscape:cx="-37.615467"
     inkscape:cy="109.88489"
     inkscape:document-units="mm"
     inkscape:current-layer="layer1"
     inkscape:document-rotation="0"
     showgrid="false"
     borderlayer="true"
     showborder="false"
     inkscape:window-width="1870"
     inkscape:window-height="1011"
     inkscape:window-x="24"
     inkscape:window-y="24"
     inkscape:window-maximized="1"
     fit-margin-top="0"
     fit-margin-left="0"
     fit-margin-right="0"
     fit-margin-bottom="0"
     lock-margins="true" />
  <metadata
     id="metadata5">
    <rdf:RDF>
      <cc:Work
         rdf:about="">
        <dc:format>image/svg+xml</dc:format>
        <dc:type
           rdf:resource="http://purl.org/dc/dcmitype/StillImage" />
        <dc:title></dc:title>
      </cc:Work>
    </rdf:RDF>
  </metadata>
  <g
     inkscape:label="Layer 1"
     inkscape:groupmode="layer"
     id="layer1"
     transform="translate(213.38465,24.476622)">
    <path
       style="opacity:1;fill:none;stroke:#000000;stroke-width:0.323924;stroke-linecap:butt;stroke-linejoin:miter;stroke-miterlimit:4;stroke-dasharray:none;stroke-opacity:1"
       d="M -146.42675,16.949177 -95.685254,0.37533985"
       id="path897" />
    <path
       style="opacity:1;fill:none;stroke:#000000;stroke-width:0.323924;stroke-linecap:butt;stroke-linejoin:miter;stroke-miterlimit:4;stroke-dasharray:none;stroke-opacity:1"
       d="m -200.27691,17.416693 40.86811,-0.341548"
       id="path2660" />
    <path
       style="opacity:1;fill:none;stroke:#000000;stroke-width:0.647846;stroke-linecap:butt;stroke-linejoin:miter;stroke-miterlimit:4;stroke-dasharray:none;stroke-opacity:1;marker-end:url(#Arrow1Mend)"
       d="m -178.62913,11.792718 13.32088,-0.116503"
       id="path2662" />
    <path
       style="opacity:1;fill:none;stroke:#000000;stroke-width:0.323924;stroke-linecap:butt;stroke-linejoin:miter;stroke-miterlimit:4;stroke-dasharray:none;stroke-opacity:1"
       d="M -186.86342,-24.476622 V 2.5970338"
       id="path2952" />
    <path
       style="opacity:1;fill:none;stroke:#000000;stroke-width:0.323924;stroke-linecap:butt;stroke-linejoin:miter;stroke-miterlimit:4;stroke-dasharray:none;stroke-opacity:1"
       d="m -200.27536,-12.712851 h 26.64961"
       id="path2954" />
    <path
       id="path2952-5"
       d="m -151.44064,-23.645214 7.87119,25.7321347"
       style="opacity:1;fill:none;stroke:#000000;stroke-width:0.323924;stroke-linecap:butt;stroke-linejoin:miter;stroke-miterlimit:4;stroke-dasharray:none;stroke-opacity:1" />
    <path
       id="path2954-3"
       d="m -160.13539,-6.3370618 25.32915,-8.8586872"
       style="opacity:1;fill:none;stroke:#000000;stroke-width:0.323924;stroke-linecap:butt;stroke-linejoin:miter;stroke-miterlimit:4;stroke-dasharray:none;stroke-opacity:1" />
    <path
       id="path2662-2"
       d="m -186.74754,-12.583567 9.21862,-0.135675"
       style="opacity:1;fill:none;stroke:#000000;stroke-width:0.581175;stroke-linecap:butt;stroke-linejoin:miter;stroke-miterlimit:4;stroke-dasharray:none;stroke-opacity:1;marker-end:url(#marker3591)" />
    <path
       style="opacity:1;fill:none;stroke:#000000;stroke-width:0.581175;stroke-linecap:butt;stroke-linejoin:miter;stroke-miterlimit:4;stroke-dasharray:none;stroke-opacity:1;marker-end:url(#marker3611)"
       d="m -186.74754,-12.583567 -9.21861,0.135676"
       id="path2662-2-2" />
    <path
       id="path2662-2-2-6"
       d="m -186.74016,-12.620403 -0.12355,-9.700645"
       style="opacity:1;fill:none;stroke:#000000;stroke-width:0.569229;stroke-linecap:butt;stroke-linejoin:miter;stroke-miterlimit:4;stroke-dasharray:none;stroke-opacity:1;marker-end:url(#marker3601)" />
    <path
       style="opacity:1;fill:none;stroke:#000000;stroke-width:0.569229;stroke-linecap:butt;stroke-linejoin:miter;stroke-miterlimit:4;stroke-dasharray:none;stroke-opacity:1;marker-end:url(#marker3581)"
       d="m -186.74754,-12.583567 0.12355,9.7006808"
       id="path2662-2-2-6-1" />
    <ellipse
       style="opacity:1;fill:none;fill-opacity:1;stroke:#000000;stroke-width:0.369197;stroke-miterlimit:4;stroke-dasharray:none;paint-order:markers fill stroke"
       id="path3759"
       cx="-87.070808"
       cy="-5.3847322"
       rx="1.7331475"
       ry="1.8283405" />
    <path
       style="opacity:1;fill:none;stroke:#000000;stroke-width:0.809805;stroke-linecap:butt;stroke-linejoin:miter;stroke-miterlimit:4;stroke-dasharray:none;stroke-opacity:1"
       d="M -135.60916,7.7954794 C -90.434439,-7.2528102 -86.344269,-7.7873354 -86.344269,-7.7873354"
       id="path3773" />
    <path
       style="opacity:1;fill:none;stroke:#000000;stroke-width:0.809805;stroke-linecap:butt;stroke-linejoin:miter;stroke-miterlimit:4;stroke-dasharray:none;stroke-opacity:1"
       d="m -86.344269,-7.7873354 c 0,0 1.821046,1.0875872 1.201089,3.4180373 -0.619895,2.3304668 -0.60303,25.5880231 -0.60303,25.5880231"
       id="path3779" />
    <path
       id="path2952-59"
       d="M -109.18293,15.244049 V 42.317688"
       style="opacity:1;fill:none;stroke:#000000;stroke-width:0.323924;stroke-linecap:butt;stroke-linejoin:miter;stroke-miterlimit:4;stroke-dasharray:none;stroke-opacity:1" />
    <path
       id="path2954-2"
       d="m -122.73578,28.424139 h 26.649604"
       style="opacity:1;fill:none;stroke:#000000;stroke-width:0.323924;stroke-linecap:butt;stroke-linejoin:miter;stroke-miterlimit:4;stroke-dasharray:none;stroke-opacity:1" />
    <path
       id="path2662-6"
       d="m -128.17205,-5.1708845 12.87492,-3.6564341"
       style="opacity:1;fill:none;stroke:#000000;stroke-width:0.647846;stroke-linecap:butt;stroke-linejoin:miter;stroke-miterlimit:4;stroke-dasharray:none;stroke-opacity:1;marker-end:url(#Arrow1Mend-9)" />
    <path
       id="path2662-2-2-6-1-3"
       d="m -147.73715,-10.780762 0.12355,9.7006451"
       style="opacity:1;fill:none;stroke:#000000;stroke-width:0.569229;stroke-linecap:butt;stroke-linejoin:miter;stroke-miterlimit:4;stroke-dasharray:none;stroke-opacity:1;marker-end:url(#marker3581-2)" />
    <path
       style="opacity:1;fill:none;stroke:#000000;stroke-width:0.603275;stroke-linecap:butt;stroke-linejoin:miter;stroke-miterlimit:4;stroke-dasharray:none;stroke-opacity:1;marker-end:url(#marker3601-4)"
       d="m -147.75584,-10.777015 -2.79389,-10.087903"
       id="path2662-2-2-6-8" />
    <path
       id="path2662-2-2-61"
       d="m -147.68393,-10.82446 -7.75771,2.7378185"
       style="opacity:1;fill:none;stroke:#000000;stroke-width:0.463589;stroke-linecap:butt;stroke-linejoin:miter;stroke-miterlimit:4;stroke-dasharray:none;stroke-opacity:1;marker-end:url(#marker3611-0)" />
    <path
       style="opacity:1;fill:none;stroke:#000000;stroke-width:0.583943;stroke-linecap:butt;stroke-linejoin:miter;stroke-miterlimit:4;stroke-dasharray:none;stroke-opacity:1;marker-end:url(#marker3611-0-0)"
       d="m -147.72295,-10.841419 9.91255,-3.399576"
       id="path2662-2-2-61-3" />
    <path
       style="opacity:1;fill:none;stroke:#000000;stroke-width:0.60414;stroke-linecap:butt;stroke-linejoin:miter;stroke-miterlimit:4;stroke-dasharray:none;stroke-opacity:1;marker-end:url(#marker3581-2-5)"
       d="m -109.24688,28.09698 0.10446,12.911029"
       id="path2662-2-2-6-1-3-4" />
    <path
       id="path2662-2-2-6-1-3-4-5"
       d="m -109.24688,28.09698 -0.12544,-9.139685"
       style="opacity:1;fill:none;stroke:#000000;stroke-width:0.557092;stroke-linecap:butt;stroke-linejoin:miter;stroke-miterlimit:4;stroke-dasharray:none;stroke-opacity:1;marker-end:url(#marker3581-2-5-7)" />
    <path
       id="path2662-25"
       d="m -71.600871,22.187894 0.108867,14.243772"
       style="opacity:1;fill:none;stroke:#000000;stroke-width:0.647846;stroke-linecap:butt;stroke-linejoin:miter;stroke-miterlimit:4;stroke-dasharray:none;stroke-opacity:1;marker-end:url(#Arrow1Mend-4)" />
    <path
       style="opacity:1;fill:none;stroke:#000000;stroke-width:0.552126;stroke-linecap:butt;stroke-linejoin:miter;stroke-miterlimit:4;stroke-dasharray:1.10425, 0.552126;stroke-dashoffset:0;stroke-opacity:1"
       d="m -129.88209,12.473629 c 3.21138,3.281061 0.62019,5.760928 0.62019,5.760928"
       id="path5989" />
    <path
       style="opacity:1;fill:none;stroke:#000000;stroke-width:0.767397;stroke-linecap:butt;stroke-linejoin:miter;stroke-miterlimit:4;stroke-dasharray:none;stroke-opacity:1"
       d="m -86.965317,-7.7873354 c -0.06083,0.1226491 1.454336,0.376254 1.383457,0.3592945 -0.46834,-0.1108184 -0.922291,-0.2393975 -1.383457,-0.3592945"
       id="path6639" />
    <text
       style="font-style:normal;font-weight:normal;font-size:10.5833px;line-height:1.25;font-family:sans-serif;letter-spacing:0px;word-spacing:0px;white-space:pre;shape-inside:url(#rect988);opacity:1;fill:#000000;fill-opacity:1;stroke:none;"
       id="text986"
       xml:space="preserve"
       transform="matrix(0.27511908,0,0,0.27701239,-179.18821,-16.393104)"><tspan
         x="-338.14648"
         y="-5.491729"><tspan>$\vec{P}$</tspan></tspan></text>
    <text
       transform="matrix(0.27511907,0,0,0.2770124,-197.00469,-16.436461)"
       xml:space="preserve"
       id="text986-6"
       style="font-style:normal;font-weight:normal;font-size:10.5833px;line-height:1.25;font-family:sans-serif;letter-spacing:0px;word-spacing:0px;white-space:pre;shape-inside:url(#rect988-3);opacity:1;fill:#000000;fill-opacity:1;stroke:none;"><tspan
         x="-338.14648"
         y="-5.491729"><tspan>$\vec{f_{k}}$</tspan></tspan></text>
    <text
       transform="matrix(0.27511907,0,0,0.2770124,-188.1924,-28.339251)"
       xml:space="preserve"
       id="text986-5"
       style="font-style:normal;font-weight:normal;font-size:10.5833px;line-height:1.25;font-family:sans-serif;letter-spacing:0px;word-spacing:0px;white-space:pre;shape-inside:url(#rect988-7);opacity:1;fill:#000000;fill-opacity:1;stroke:none;"><tspan
         x="-338.14648"
         y="-5.491729"><tspan>$\vec{n}$</tspan></tspan></text>
    <text
       style="font-style:normal;font-weight:normal;font-size:10.5833px;line-height:1.25;font-family:sans-serif;letter-spacing:0px;word-spacing:0px;white-space:pre;shape-inside:url(#rect988-7-3);opacity:1;fill:#000000;fill-opacity:1;stroke:none;"
       id="text986-5-5"
       xml:space="preserve"
       transform="matrix(0.27511907,0,0,0.2770124,-183.20283,-1.4049014)"><tspan
         x="-338.14648"
         y="-5.491729"><tspan>$\vec{Fg}$</tspan></tspan></text>
    <rect
       y="7.3544579"
       x="-200.29442"
       height="10.079742"
       width="17.150827"
       id="rect1896"
       style="opacity:1;fill:none;stroke:#000000;stroke-width:0.464986;stroke-linecap:butt;stroke-linejoin:miter;stroke-miterlimit:4;stroke-dasharray:none;paint-order:markers fill stroke" />
    <rect
       inkscape:transform-center-y="-0.27628078"
       inkscape:transform-center-x="-0.064409186"
       transform="rotate(-17.69052)"
       style="opacity:1;fill:none;stroke:#000000;stroke-width:0.464987;stroke-linecap:butt;stroke-linejoin:miter;stroke-miterlimit:4;stroke-dasharray:none;paint-order:markers fill stroke"
       id="rect1896-6"
       width="17.150829"
       height="10.079742"
       x="-148.67482"
       y="-38.391483" />
    <text
       transform="matrix(0.27511907,0,0,0.2770124,-153.70295,-27.135565)"
       xml:space="preserve"
       id="text986-5-5-9"
       style="font-style:normal;font-weight:normal;font-size:10.5833px;line-height:1.25;font-family:sans-serif;letter-spacing:0px;word-spacing:0px;white-space:pre;shape-inside:url(#rect988-7-3-2);opacity:1;fill:#000000;fill-opacity:1;stroke:none;"><tspan
         x="-338.14648"
         y="-5.491729"><tspan>$\vec{n}$</tspan></tspan></text>
    <text
       style="font-style:normal;font-weight:normal;font-size:10.5833px;line-height:1.25;font-family:sans-serif;letter-spacing:0px;word-spacing:0px;white-space:pre;shape-inside:url(#rect988-3-1);opacity:1;fill:#000000;fill-opacity:1;stroke:none;"
       id="text986-6-2"
       xml:space="preserve"
       transform="matrix(0.27511907,0,0,0.2770124,-158.20762,-12.656409)"><tspan
         x="-338.14648"
         y="-5.491729"><tspan>$\vec{f_{k}}$</tspan></tspan></text>
    <text
       transform="matrix(0.27511907,0,0,0.2770124,-144.32709,-16.54882)"
       xml:space="preserve"
       id="text986-9"
       style="font-style:normal;font-weight:normal;font-size:10.5833px;line-height:1.25;font-family:sans-serif;letter-spacing:0px;word-spacing:0px;white-space:pre;shape-inside:url(#rect988-70);opacity:1;fill:#000000;fill-opacity:1;stroke:none;"><tspan
         x="-338.14648"
         y="-5.491729"><tspan>$\vec{T}$</tspan></tspan></text>
    <text
       transform="matrix(0.27511907,0,0,0.2770124,-154.5288,0.25906046)"
       xml:space="preserve"
       id="text986-5-5-6"
       style="font-style:normal;font-weight:normal;font-size:10.5833px;line-height:1.25;font-family:sans-serif;letter-spacing:0px;word-spacing:0px;white-space:pre;shape-inside:url(#rect988-7-3-3);opacity:1;fill:#000000;fill-opacity:1;stroke:none;"><tspan
         x="-338.14648"
         y="-5.491729"><tspan>$\vec{Fg}$</tspan></tspan></text>
    <text
       transform="matrix(0.27511907,0,0,0.2770124,-193.48283,13.416562)"
       xml:space="preserve"
       id="text986-5-5-2"
       style="font-style:normal;font-weight:normal;font-size:10.5833px;line-height:1.25;font-family:sans-serif;letter-spacing:0px;word-spacing:0px;white-space:pre;shape-inside:url(#rect988-7-3-0);opacity:1;fill:#000000;fill-opacity:1;stroke:none;"><tspan
         x="-338.14648"
         y="-5.491729"><tspan>M</tspan></tspan></text>
    <text
       style="font-style:normal;font-weight:normal;font-size:10.5833px;line-height:1.25;font-family:sans-serif;letter-spacing:0px;word-spacing:0px;white-space:pre;shape-inside:url(#rect988-7-3-0-6);opacity:1;fill:#000000;fill-opacity:1;stroke:none;"
       id="text986-5-5-2-1"
       xml:space="preserve"
       transform="matrix(0.27511907,0,0,0.2770124,-145.42533,11.743631)"><tspan
         x="-338.14648"
         y="-5.491729"><tspan>M</tspan></tspan></text>
    <text
       transform="matrix(0.27511907,0,0,0.2770124,-174.9203,9.1846153)"
       xml:space="preserve"
       id="text986-5-5-7"
       style="font-style:normal;font-weight:normal;font-size:10.5833px;line-height:1.25;font-family:sans-serif;letter-spacing:0px;word-spacing:0px;white-space:pre;shape-inside:url(#rect988-7-3-8);opacity:1;fill:#000000;fill-opacity:1;stroke:none;"><tspan
         x="-338.14648"
         y="-5.491729"><tspan>$\vec{v}$</tspan></tspan></text>
    <text
       style="font-style:normal;font-weight:normal;font-size:10.5833px;line-height:1.25;font-family:sans-serif;letter-spacing:0px;word-spacing:0px;white-space:pre;shape-inside:url(#rect988-7-3-8-9);opacity:1;fill:#000000;fill-opacity:1;stroke:none;"
       id="text986-5-5-7-2"
       xml:space="preserve"
       transform="matrix(0.27511907,0,0,0.2770124,-124.59052,-8.5945299)"><tspan
         x="-338.14648"
         y="-5.491729"><tspan>$\vec{v}$</tspan></tspan></text>
    <rect
       style="opacity:1;fill:none;stroke:#000000;stroke-width:0.635374;stroke-linecap:butt;stroke-linejoin:miter;stroke-miterlimit:4;stroke-dasharray:none;paint-order:markers fill stroke"
       id="rect1896-2"
       width="16.980444"
       height="19.009138"
       x="-94.873558"
       y="21.251581" />
    <text
       transform="matrix(0.27511907,0,0,0.2770124,-89.086454,30.918524)"
       xml:space="preserve"
       id="text986-5-5-2-1-7"
       style="font-style:normal;font-weight:normal;font-size:10.5833px;line-height:1.25;font-family:sans-serif;letter-spacing:0px;word-spacing:0px;white-space:pre;shape-inside:url(#rect988-7-3-0-6-3);opacity:1;fill:#000000;fill-opacity:1;stroke:none;"><tspan
         x="-338.14648"
         y="-5.491729"><tspan>2M</tspan></tspan></text>
    <text
       style="font-style:normal;font-weight:normal;font-size:10.5833px;line-height:1.25;font-family:sans-serif;letter-spacing:0px;word-spacing:0px;white-space:pre;shape-inside:url(#rect988-7-3-2-5);opacity:1;fill:#000000;fill-opacity:1;stroke:none;"
       id="text986-5-5-9-9"
       xml:space="preserve"
       transform="matrix(0.27511907,0,0,0.2770124,-105.62937,16.080725)"><tspan
         x="-338.14648"
         y="-5.491729"><tspan>$\vec{T}$</tspan></tspan></text>
    <text
       style="font-style:normal;font-weight:normal;font-size:10.5833px;line-height:1.25;font-family:sans-serif;letter-spacing:0px;word-spacing:0px;white-space:pre;shape-inside:url(#rect988-7-3-3-2);opacity:1;fill:#000000;fill-opacity:1;stroke:none;"
       id="text986-5-5-6-2"
       xml:space="preserve"
       transform="matrix(0.27511907,0,0,0.2770124,-105.7121,37.935533)"><tspan
         x="-338.14648"
         y="-5.491729"><tspan>$\vec{Fg}$</tspan></tspan></text>
    <text
       transform="matrix(0.27511907,0,0,0.2770124,-67.18411,28.691353)"
       xml:space="preserve"
       id="text986-5-5-7-2-9"
       style="font-style:normal;font-weight:normal;font-size:10.5833px;line-height:1.25;font-family:sans-serif;letter-spacing:0px;word-spacing:0px;white-space:pre;shape-inside:url(#rect988-7-3-8-9-8);opacity:1;fill:#000000;fill-opacity:1;stroke:none;"><tspan
         x="-338.14648"
         y="-5.491729"><tspan>$\vec{v}$</tspan></tspan></text>
  </g>
</svg>
